{
"guid":"",
"providerId":"",
"name":"",
"subtitle":"",
"level":"",
"weekday":"",
"startDate":"",
"endDate":"",
"targetGroup":"",
"keywords":[],
"barrierFree":false,
"startTime":"",
"endTime":"",
"timeZone":"",
"Price":0,
"lectureId":"",
"webURL":"",
"languageAlpha2":"",
"webURL":"",
"webURL":"",
"catId":""
}
