{
"guid":"",
"creatorId":"",
"exchangeId":"",
"Price":0,
"dates":[],
"role":"",
"createTimeStamp":"",
"description":"",
"editTimeStamp":"",
"status":0,
"reportCounter":0,
"keywords":[],
"courseId":"",
"catId":"",
"role":""
}
